…
``` r
women_respect_all %>% 
  summarize_all(~ sum(is.na(.))) %>% 
  pivot_longer(cols = (-country), names_to = "field", values_to = "num_na") %>% 
  select(-country) %>% 
  mutate(perct_na = num_na / nrow(women_respect_all) * 100) %>% 
  arrange(perct_na)
```

    ## # A tibble: 25 x 3
    ##    field                  num_na perct_na
    ##    <chr>                   <int>    <dbl>
    ##  1 weight                      0  0      
    ##  2 region                      0  0      
    ##  3 region_2                    0  0      
    ##  4 year                        0  0      
    ##  5 gender                     22  0.00118
    ##  6 age                     10285  0.554  
    ##  7 marital_status          24619  1.33   
    ##  8 women_respected_1      730082 39.3    
    ##  9 women_men_same_rights 1671092 89.9    
    ## 10 women_any_job         1671093 89.9    
    ## # … with 15 more rows
…
### Available country and regions data

``` r
women_respect_all %>% 
  group_by(country) %>% 
  distinct(country)
```

    ## # A tibble: 166 x 1
    ## # Groups:   country [166]
    ##    country       
    ##    <chr>         
    ##  1 United States 
    ##  2 Egypt         
    ##  3 Lebanon       
    ##  4 Saudi Arabia  
    ##  5 Jordan        
    ##  6 Turkey        
    ##  7 Pakistan      
    ##  8 Indonesia     
    ##  9 Bangladesh    
    ## 10 United Kingdom
    ## # … with 156 more rows
…
women_respect %>% 
  count(
    women_respected, country, gender, year, wt = weight, name = "prop_respect"
  ) %>% 
  mutate(prop_respect = prop_respect / sum(prop_respect)) %>% 
  filter(women_respected %in% c("(DK)", "(Refused)")) %>% 
  arrange(desc(prop_respect))
```

    ## # A tibble: 2,934 x 5
    ##    women_respected country      gender  year prop_respect
    ##    <chr>           <chr>        <chr>  <dbl>        <dbl>
    ##  1 (DK)            Russia       Female  2012     0.000144
    ##  2 (DK)            Vietnam      Male    2012     0.000140
    ##  3 (DK)            Russia       Male    2012     0.000131
    ##  4 (DK)            Bahrain      Male    2011     0.000126
    ##  5 (DK)            China        Female  2017     0.000126
    ##  6 (DK)            Bahrain      Female  2011     0.000116
    ##  7 (DK)            Turkmenistan Male    2015     0.000110
    ##  8 (DK)            Vietnam      Female  2012     0.000104
    ##  9 (DK)            Russia       Female  2011     0.000104
    ## 10 (DK)            Russia       Female  2017     0.000104
    ## # … with 2,924 more rows
…
