…
``` r
women_respect_stem_grad %>% 
  filter(year %in% c(2015, 2016, 2017)) %>% 
  select(country, year) %>% 
  distinct(country, year) %>% 
  count(country) %>% 
  arrange(desc(n))
```

    ## # A tibble: 90 x 2
    ##    country                    n
    ##    <chr>                  <int>
    ##  1 Albania                    3
    ##  2 Armenia                    3
    ##  3 Azerbaijan                 3
    ##  4 Bahrain                    3
    ##  5 Belarus                    3
    ##  6 Belgium                    3
    ##  7 Bosnia and Herzegovina     3
    ##  8 Brazil                     3
    ##  9 Bulgaria                   3
    ## 10 Burkina Faso               3
    ## # … with 80 more rows
…
